M48
; DRILL file {KiCad 5.1.6} date Mon Jul 27 21:58:32 2020
; FORMAT={-:-/ absolute / metric / decimal}
; #@! TF.CreationDate,2020-07-27T21:58:32-07:00
; #@! TF.GenerationSoftware,Kicad,Pcbnew,5.1.6
; #@! TF.FileFunction,Plated,1,2,PTH
FMAT,2
METRIC
T1C0.800
T2C1.100
T3C1.300
T4C3.500
%
G90
G05
T1
X18.288Y-14.274
X18.288Y-21.894
X35.56Y-3.606
X35.56Y-11.226
X18.288Y-29.056
X18.288Y-36.676
X18.288Y-3.606
X18.288Y-11.226
X18.288Y21.844
X18.288Y14.224
X35.56Y21.844
X35.56Y14.224
X13.208Y21.844
X13.208Y14.224
X13.208Y11.176
X13.208Y3.556
X13.208Y-39.724
X13.208Y-47.344
X13.208Y-29.056
X13.208Y-36.676
X35.56Y-14.274
X35.56Y-21.894
X13.208Y-3.606
X13.208Y-11.226
X23.368Y-33.628
X23.368Y-36.168
X23.368Y-38.708
X23.368Y-41.248
X30.988Y-33.628
X30.988Y-36.168
X30.988Y-38.708
X30.988Y-41.248
X23.368Y-8.178
X23.368Y-10.718
X23.368Y-13.258
X23.368Y-15.798
X30.988Y-8.178
X30.988Y-10.718
X30.988Y-13.258
X30.988Y-15.798
X23.368Y17.272
X23.368Y14.732
X23.368Y12.192
X23.368Y9.652
X30.988Y17.272
X30.988Y14.732
X30.988Y12.192
X30.988Y9.652
X35.56Y11.176
X35.56Y3.556
X18.288Y11.176
X18.288Y3.556
X35.56Y-29.056
X35.56Y-36.676
X18.288Y-39.724
X18.288Y-47.344
X13.208Y-14.274
X13.208Y-21.894
X35.56Y-39.724
X35.56Y-47.344
T2
X41.656Y-3.606
X44.196Y-3.606
X46.736Y-3.606
X41.656Y-29.056
X44.196Y-29.056
X46.736Y-29.056
X41.656Y21.844
X44.196Y21.844
X46.736Y21.844
T3
X5.08Y-35.66
X5.08Y-40.74
X56.388Y-35.66
X56.388Y-40.74
X5.08Y-10.21
X5.08Y-15.29
X56.388Y15.24
X56.388Y10.16
X5.08Y15.24
X5.08Y10.16
X56.388Y-10.21
X56.388Y-15.29
T4
X44.196Y-20.266
X44.196Y-45.716
X44.196Y5.184
T0
M30
