EESchema Schematic File Version 4
EELAYER 30 0
EELAYER END
$Descr USLetter 11000 8500
encoding utf-8
Sheet 1 1
Title "Battery Low-Voltage Cutoff"
Date "2020-07-23"
Rev "0.1"
Comp "Scott Alfter"
Comment1 ""
Comment2 ""
Comment3 ""
Comment4 ""
$EndDescr
$Comp
L Device:D_Zener_ALT D1
U 1 1 5F1A619B
P 3950 4350
F 0 "D1" V 3904 4430 50  0000 L CNN
F 1 "BZX79-C5V1,133" V 3995 4430 50  0000 L CNN
F 2 "Diode_THT:D_DO-35_SOD27_P7.62mm_Horizontal" H 3950 4350 50  0001 C CNN
F 3 "https://assets.nexperia.com/documents/data-sheet/BZX79.pdf" H 3950 4350 50  0001 C CNN
F 4 "Nexperia" H 3950 4350 50  0001 C CNN "DK_Mfr"
F 5 "BZX79-C5V1,133" H 3950 4350 50  0001 C CNN "DK_Mfr_PN"
F 6 "DO-204AH" H 3950 4350 50  0001 C CNN "Package"
F 7 "5.1V 400mA" H 3950 4350 50  0001 C CNN "Characteristics"
F 8 "1727-6149-1-ND" H 3950 4350 50  0001 C CNN "DK_PN"
	1    3950 4350
	0    1    1    0   
$EndComp
$Comp
L Device:R_US R1
U 1 1 5F1A69B9
P 3950 3800
F 0 "R1" H 4018 3846 50  0000 L CNN
F 1 "470" H 4018 3755 50  0000 L CNN
F 2 "Resistor_THT:R_Axial_DIN0207_L6.3mm_D2.5mm_P7.62mm_Horizontal" V 3990 3790 50  0001 C CNN
F 3 "~" H 3950 3800 50  0001 C CNN
	1    3950 3800
	1    0    0    -1  
$EndComp
$Comp
L Device:R_US R2
U 1 1 5F1A70D3
P 4750 3600
F 0 "R2" H 4818 3646 50  0000 L CNN
F 1 "18k" H 4818 3555 50  0000 L CNN
F 2 "Resistor_THT:R_Axial_DIN0207_L6.3mm_D2.5mm_P7.62mm_Horizontal" V 4790 3590 50  0001 C CNN
F 3 "~" H 4750 3600 50  0001 C CNN
	1    4750 3600
	1    0    0    -1  
$EndComp
$Comp
L Device:R_US R3
U 1 1 5F1A79A7
P 4750 4350
F 0 "R3" H 4818 4396 50  0000 L CNN
F 1 "10k" H 4818 4305 50  0000 L CNN
F 2 "Resistor_THT:R_Axial_DIN0207_L6.3mm_D2.5mm_P7.62mm_Horizontal" V 4790 4340 50  0001 C CNN
F 3 "~" H 4750 4350 50  0001 C CNN
	1    4750 4350
	1    0    0    -1  
$EndComp
$Comp
L Amplifier_Operational:TL071 U1
U 1 1 5F1A80A7
P 5650 3950
F 0 "U1" H 5994 3996 50  0000 L CNN
F 1 "TL071IP" H 5994 3905 50  0000 L CNN
F 2 "Package_DIP:DIP-8_W7.62mm" H 5700 4000 50  0001 C CNN
F 3 "http://www.ti.com/lit/ds/symlink/tl071.pdf" H 5800 4100 50  0001 C CNN
F 4 "Texas Instruments" H 5650 3950 50  0001 C CNN "DK_Mfr"
F 5 "296-7188-5-ND" H 5650 3950 50  0001 C CNN "DK_Mfr_PN"
F 6 "DIP-8" H 5650 3950 50  0001 C CNN "Package"
F 7 "296-7188-5-ND" H 5650 3950 50  0001 C CNN "DK_PN"
	1    5650 3950
	1    0    0    -1  
$EndComp
$Comp
L Transistor_FET:IRLZ44N Q1
U 1 1 5F1A94CF
P 7300 3950
F 0 "Q1" H 7505 3996 50  0000 L CNN
F 1 "PSMN5R6-100PS,127" H 7505 3905 50  0000 L CNN
F 2 "Package_TO_SOT_THT:TO-220-3_Horizontal_TabDown" H 7300 3950 50  0001 C CIN
F 3 "https://assets.nexperia.com/documents/data-sheet/PSMN5R6-100PS.pdf" H 7300 3950 50  0001 L CNN
F 4 "Nexperia" H 7300 3950 50  0001 C CNN "DK_Mfr"
F 5 "PSMN5R6-100PS,127" H 7300 3950 50  0001 C CNN "DK_Mfr_PN"
F 6 "1727-4283-ND" H 7300 3950 50  0001 C CNN "DK_PN"
F 7 "TO-220" H 7300 3950 50  0001 C CNN "Package"
	1    7300 3950
	1    0    0    -1  
$EndComp
Wire Wire Line
	3950 3950 3950 4050
Wire Wire Line
	3950 4050 5350 4050
Connection ~ 3950 4050
Wire Wire Line
	3950 4050 3950 4200
Wire Wire Line
	4750 3750 4750 3850
Wire Wire Line
	5350 3850 4750 3850
Connection ~ 4750 3850
Wire Wire Line
	4750 3850 4750 4200
Wire Wire Line
	3950 4500 3950 4550
Wire Wire Line
	3950 4550 4750 4550
Wire Wire Line
	4750 4550 4750 4500
Wire Wire Line
	4750 4550 5550 4550
Wire Wire Line
	5550 4550 5550 4250
Connection ~ 4750 4550
Wire Wire Line
	3950 3400 4750 3400
Wire Wire Line
	4750 3400 4750 3450
Wire Wire Line
	3950 3400 3950 3650
Wire Wire Line
	4750 3400 5550 3400
Wire Wire Line
	5550 3400 5550 3650
Connection ~ 4750 3400
Wire Wire Line
	7400 4550 7400 4150
Connection ~ 5550 4550
$Comp
L power:GND #PWR04
U 1 1 5F1AD84F
P 5550 4700
F 0 "#PWR04" H 5550 4450 50  0001 C CNN
F 1 "GND" H 5555 4527 50  0000 C CNN
F 2 "" H 5550 4700 50  0001 C CNN
F 3 "" H 5550 4700 50  0001 C CNN
	1    5550 4700
	1    0    0    -1  
$EndComp
Wire Wire Line
	5550 4700 5550 4550
$Comp
L power:+BATT #PWR03
U 1 1 5F1ADF64
P 5550 3350
F 0 "#PWR03" H 5550 3200 50  0001 C CNN
F 1 "+BATT" H 5565 3523 50  0000 C CNN
F 2 "" H 5550 3350 50  0001 C CNN
F 3 "" H 5550 3350 50  0001 C CNN
	1    5550 3350
	1    0    0    -1  
$EndComp
Wire Wire Line
	5550 3350 5550 3400
Connection ~ 5550 3400
$Comp
L power:+BATT #PWR01
U 1 1 5F1AFF91
P 3500 3900
F 0 "#PWR01" H 3500 3750 50  0001 C CNN
F 1 "+BATT" H 3515 4073 50  0000 C CNN
F 2 "" H 3500 3900 50  0001 C CNN
F 3 "" H 3500 3900 50  0001 C CNN
	1    3500 3900
	1    0    0    -1  
$EndComp
$Comp
L power:GND #PWR02
U 1 1 5F1B08AF
P 3500 4100
F 0 "#PWR02" H 3500 3850 50  0001 C CNN
F 1 "GND" H 3505 3927 50  0000 C CNN
F 2 "" H 3500 4100 50  0001 C CNN
F 3 "" H 3500 4100 50  0001 C CNN
	1    3500 4100
	1    0    0    -1  
$EndComp
Wire Wire Line
	3450 3950 3500 3950
Wire Wire Line
	3500 3950 3500 3900
Wire Wire Line
	3450 4050 3500 4050
Wire Wire Line
	3500 4050 3500 4100
$Comp
L power:+BATT #PWR05
U 1 1 5F1B24CC
P 7400 3350
F 0 "#PWR05" H 7400 3200 50  0001 C CNN
F 1 "+BATT" H 7415 3523 50  0000 C CNN
F 2 "" H 7400 3350 50  0001 C CNN
F 3 "" H 7400 3350 50  0001 C CNN
	1    7400 3350
	1    0    0    -1  
$EndComp
NoConn ~ 5650 4250
NoConn ~ 5750 4250
Text Notes 4250 3300 0    50   ~ 0
Setting R2:\n16k -> 13.26V (2.65V/cell)\n18k -> 14.28V (2.86V/cell)\n20k -> 15.30V (3.06V/cell)
$Comp
L Device:R_US R5
U 1 1 5F1BA111
P 6700 4250
F 0 "R5" H 6768 4296 50  0000 L CNN
F 1 "22k" H 6768 4205 50  0000 L CNN
F 2 "Resistor_THT:R_Axial_DIN0207_L6.3mm_D2.5mm_P7.62mm_Horizontal" V 6740 4240 50  0001 C CNN
F 3 "~" H 6700 4250 50  0001 C CNN
	1    6700 4250
	1    0    0    -1  
$EndComp
$Comp
L Device:R_US R4
U 1 1 5F1BA5F9
P 6450 3950
F 0 "R4" V 6245 3950 50  0000 C CNN
F 1 "10k" V 6336 3950 50  0000 C CNN
F 2 "Resistor_THT:R_Axial_DIN0207_L6.3mm_D2.5mm_P7.62mm_Horizontal" V 6490 3940 50  0001 C CNN
F 3 "~" H 6450 3950 50  0001 C CNN
	1    6450 3950
	0    1    1    0   
$EndComp
Wire Wire Line
	5950 3950 6300 3950
Connection ~ 6700 4550
Wire Wire Line
	6700 4550 7400 4550
Wire Wire Line
	5550 4550 6700 4550
Wire Wire Line
	6600 3950 6700 3950
Wire Wire Line
	6700 4400 6700 4550
Wire Wire Line
	6700 4100 6700 3950
Connection ~ 6700 3950
Wire Wire Line
	6700 3950 7100 3950
$Comp
L Connector:Screw_Terminal_01x02 J1
U 1 1 5F1C40FC
P 3250 3950
F 0 "J1" H 3168 4075 50  0000 C CNN
F 1 "Screw_Terminal_01x02" H 3168 4076 50  0001 C CNN
F 2 "TerminalBlock_Phoenix:TerminalBlock_Phoenix_MKDS-1,5-2-5.08_1x02_P5.08mm_Horizontal" H 3250 3950 50  0001 C CNN
F 3 "~" H 3250 3950 50  0001 C CNN
	1    3250 3950
	-1   0    0    -1  
$EndComp
$Comp
L Connector:Screw_Terminal_01x02 J2
U 1 1 5F1C5E28
P 7200 3600
F 0 "J2" H 7200 3350 50  0000 C CNN
F 1 "Screw_Terminal_01x02" H 7118 3726 50  0001 C CNN
F 2 "TerminalBlock_Phoenix:TerminalBlock_Phoenix_MKDS-1,5-2-5.08_1x02_P5.08mm_Horizontal" H 7200 3600 50  0001 C CNN
F 3 "~" H 7200 3600 50  0001 C CNN
	1    7200 3600
	-1   0    0    1   
$EndComp
Wire Wire Line
	7400 3350 7400 3500
Wire Wire Line
	7400 3600 7400 3750
$EndSCHEMATC
